{
    "iisSettings": {
        "windowsAuthentication": false,
        "anonymousAuthentication": true        
    },
    "profiles": {        
        "Website": {
            "commandName": "Project",
            "launchBrowser": true,
            "environmentVariables": {
                "ASPNETCORE_ENVIRONMENT": "Development"
            },
            "applicationUrl": "http://localhost:32829/"
        }
    }
}
